<svg width="35" height="35" viewBox="0 0 35 35" fill="none" xmlns="http://www.w3.org/2000/svg">
<g filter="url(#filter0_i)">
<path d="M17.4999 0C27.1655 0 35 7.83562 35 17.5001C35 27.1656 27.1655 35 17.4999 35C7.83442 35 0 27.1655 0 17.5001C0 7.83562 7.83454 0 17.4999 0Z" fill="#3B5998"/>
<path d="M19.6307 12.0476H21.886V8.71603H19.2348V8.72805C16.0224 8.84182 15.364 10.6476 15.306 12.5442H15.2994V14.2078H13.1119V17.4704H15.2994V26.216H18.596V17.4704H21.2965L21.8181 14.2078H18.5971V13.2027C18.5971 12.5617 19.0236 12.0476 19.6307 12.0476Z" fill="white"/>
</g>
<defs>
<filter id="filter0_i" x="0" y="0" width="35" height="39" filterUnits="userSpaceOnUse" color-interpolation-filters="sRGB">
<feFlood flood-opacity="0" result="BackgroundImageFix"/>
<feBlend mode="normal" in="SourceGraphic" in2="BackgroundImageFix" result="shape"/>
<feColorMatrix in="SourceAlpha" type="matrix" values="0 0 0 0 0 0 0 0 0 0 0 0 0 0 0 0 0 0 127 0" result="hardAlpha"/>
<feOffset dy="4"/>
<feGaussianBlur stdDeviation="2"/>
<feComposite in2="hardAlpha" operator="arithmetic" k2="-1" k3="1"/>
<feColorMatrix type="matrix" values="0 0 0 0 0 0 0 0 0 0 0 0 0 0 0 0 0 0 0.25 0"/>
<feBlend mode="normal" in2="shape" result="effect1_innerShadow"/>
</filter>
</defs>
</svg>
