<svg width="31" height="31" viewBox="0 0 31 31" fill="none" xmlns="http://www.w3.org/2000/svg">
<g filter="url(#filter0_i)">
<path d="M15.5 31C24.0604 31 31 24.0604 31 15.5C31 6.93959 24.0604 0 15.5 0C6.93959 0 0 6.93959 0 15.5C0 24.0604 6.93959 31 15.5 31Z" fill="#C4C4C4"/>
<path d="M0 15.5C0 15.6577 0.00694828 15.8132 0.0117586 15.9698H15.5V0C6.93972 0 0 6.93972 0 15.5Z" fill="#EF476F"/>
<path d="M15.5 3.67682C15.205 3.67682 14.9655 3.91573 14.9655 4.2113V16.5044H6.94827C6.65324 16.5044 6.41379 16.7433 6.41379 17.0389C6.41379 17.3345 6.65324 17.5734 6.94827 17.5734H15.5C15.795 17.5734 16.0345 17.3345 16.0345 17.0389V4.2113C16.0345 3.91573 15.795 3.67682 15.5 3.67682Z" fill="#4393BF"/>
<path d="M15.5 2.67239C15.205 2.67239 14.9655 2.91131 14.9655 3.20688V15.5H6.94827C6.65324 15.5 6.41379 15.7389 6.41379 16.0345C6.41379 16.33 6.65324 16.5689 6.94827 16.5689H15.5C15.795 16.5689 16.0345 16.33 16.0345 16.0345V3.20688C16.0345 2.91131 15.795 2.67239 15.5 2.67239Z" fill="#424A60"/>
</g>
<defs>
<filter id="filter0_i" x="0" y="0" width="31" height="35" filterUnits="userSpaceOnUse" color-interpolation-filters="sRGB">
<feFlood flood-opacity="0" result="BackgroundImageFix"/>
<feBlend mode="normal" in="SourceGraphic" in2="BackgroundImageFix" result="shape"/>
<feColorMatrix in="SourceAlpha" type="matrix" values="0 0 0 0 0 0 0 0 0 0 0 0 0 0 0 0 0 0 127 0" result="hardAlpha"/>
<feOffset dy="4"/>
<feGaussianBlur stdDeviation="2"/>
<feComposite in2="hardAlpha" operator="arithmetic" k2="-1" k3="1"/>
<feColorMatrix type="matrix" values="0 0 0 0 0 0 0 0 0 0 0 0 0 0 0 0 0 0 0.25 0"/>
<feBlend mode="normal" in2="shape" result="effect1_innerShadow"/>
</filter>
</defs>
</svg>
