<svg width="21" height="18" viewBox="0 0 21 18" fill="none" xmlns="http://www.w3.org/2000/svg">
<path d="M18.2722 14.2175L20.6195 13.107L14.2336 10.8806L16.5864 16.924L17.7602 14.7023L20.2212 17.0312C20.2921 17.098 20.3848 17.1316 20.4775 17.1316C20.5702 17.1316 20.6629 17.098 20.7335 17.0312C20.8751 16.8972 20.8751 16.6807 20.7335 16.5467L18.2722 14.2175ZM15.456 12.037L18.7986 13.2026L17.3912 13.8684L16.6877 15.2005L15.456 12.037Z" fill="#EF476F"/>
<path d="M7.52686 4.61626C7.52686 3.5822 6.68582 2.74109 5.65186 2.74109C4.6179 2.74109 3.77686 3.5822 3.77686 4.61626C3.77686 5.64997 4.6179 6.49109 5.65186 6.49109C6.68582 6.49109 7.52686 5.65031 7.52686 4.61626ZM4.45023 4.61626C4.45023 3.95394 4.98926 3.41452 5.65186 3.41452C6.31445 3.41452 6.85349 3.95394 6.85349 4.61626C6.85349 5.27858 6.31445 5.818 5.65186 5.818C4.98926 5.818 4.45023 5.27891 4.45023 4.61626Z" fill="#FCD200"/>
<path d="M18.5829 9.16104C18.7307 9.28885 18.9595 9.27925 19.0945 9.1398C19.2296 9.00035 19.2198 8.78346 19.0721 8.65566L14.7273 4.88671C14.6567 4.82538 14.5607 4.78974 14.4666 4.79694C14.3703 4.80105 14.2798 4.84114 14.2153 4.90829L10.6692 8.58371L8.95191 6.9586C8.81722 6.83149 8.60034 6.82464 8.4566 6.94353L2.29527 12.0775C2.14537 12.2026 2.13089 12.4191 2.26268 12.5613C2.33437 12.6384 2.43431 12.6775 2.5346 12.6775C2.61968 12.6775 2.70513 12.6494 2.77393 12.5922L8.68036 7.67128L11.3303 10.1787C11.4719 10.3126 11.7007 10.3126 11.8423 10.1787C11.9839 10.0447 11.9839 9.82815 11.8423 9.69418L11.1815 9.06888L14.5053 5.62405L18.5829 9.16104Z" fill="#06D6A0"/>
<path d="M20.6379 0H0.362069C0.161845 0 0 0.153157 0 0.342632V15.4184C0 15.6079 0.161845 15.7611 0.362069 15.7611H13.7586C13.9588 15.7611 14.1207 15.6079 14.1207 15.4184C14.1207 15.229 13.9588 15.0758 13.7586 15.0758H0.724138V0.685264H20.2759V11.3069C20.2759 11.4963 20.4377 11.6495 20.6379 11.6495C20.8382 11.6495 21 11.4963 21 11.3069V0.342632C21 0.153157 20.8382 0 20.6379 0Z" fill="#FFD166"/>
</svg>
