<svg width="25" height="25" viewBox="0 0 25 25" fill="none" xmlns="http://www.w3.org/2000/svg">
<path d="M20 11.5999C20 10.5499 19.15 9.99988 18 9.99988H14.65C14.9 9.09988 15 8.24988 15 7.49988C15 4.59988 14.2 3.99988 13.5 3.99988C13.05 3.99988 12.7 4.04988 12.25 4.29988C12.1 4.39988 12.05 4.49988 12 4.64988L11.5 7.34988C10.95 8.74988 9.6 9.99988 8.5 10.8499V17.9999C8.9 17.9999 9.3 18.1999 9.8 18.4499C10.35 18.6999 10.9 18.9999 11.5 18.9999H16.25C17.25 18.9999 18 18.1999 18 17.4999C18 17.3499 18 17.2499 17.95 17.1499C18.55 16.8999 19 16.3999 19 15.7499C19 15.4499 18.95 15.1999 18.85 14.9499C19.25 14.6999 19.6 14.2499 19.6 13.7499C19.6 13.4499 19.45 13.1499 19.3 12.8999C19.7 12.5999 20 12.0999 20 11.5999ZM18.95 11.5999C18.95 12.2499 18.3 12.2999 18.2 12.5999C18.1 12.9499 18.6 13.0499 18.6 13.6499C18.6 14.2499 17.85 14.2499 17.75 14.5999C17.65 14.9999 18 15.0999 18 15.6999V15.7999C17.9 16.2999 17.15 16.3499 17 16.5499C16.85 16.7999 17 16.8999 17 17.4499C17 17.7499 16.65 17.9499 16.25 17.9499H11.5C11.1 17.9499 10.7 17.7499 10.2 17.4999C9.8 17.2999 9.4 17.0999 9 16.9999V11.7499C10.25 10.7999 11.85 9.39988 12.45 7.64988V7.54988L12.9 5.04988C13.1 4.99988 13.25 4.99988 13.5 4.99988C13.6 4.99988 14 5.59988 14 7.49988C14 8.24988 13.85 9.04988 13.6 9.99988H13.5C13.2 9.99988 13 10.1999 13 10.4999C13 10.7999 13.2 10.9999 13.5 10.9999H18C18.5 10.9999 18.95 11.2499 18.95 11.5999Z" fill="#06D6A0"/>
<path d="M8 19H5C4.45 19 4 18.55 4 18V11C4 10.45 4.45 10 5 10H8C8.55 10 9 10.45 9 11V18C9 18.55 8.55 19 8 19ZM5 11V18H8V11H5Z" fill="#06D6A0"/>
</svg>
