<?xml version="1.0" encoding="utf-8"?>
<!-- Generator: Adobe Illustrator 25.0.1, SVG Export Plug-In . SVG Version: 6.00 Build 0)  -->
<svg version="1.1" id="Слой_1" xmlns="http://www.w3.org/2000/svg" xmlns:xlink="http://www.w3.org/1999/xlink" x="0px" y="0px"
	 viewBox="0 0 5000 150" style="enable-background:new 0 0 5000 150;" xml:space="preserve">
<style type="text/css">
	.st0{fill:#FFD166;}
	.st1{fill:#073B4C;}
	.st2{opacity:0.1;fill:#FFFFFF;enable-background:new    ;}
</style>
<path class="st0" d="M189.1,148.2V7.2c716.8,0,788.8,118,1348.8,129.2s805.3-27.8,932.1-38.9c126.8-11.1,237.1-44.8,537.4-46.3
	c280-1.4,543.8,50.5,691.8,65.8c173.5,18,545.3,41.9,744.7-34.8c199.4-76.8,161.1-79.5,524.7-79.5v136L189.1,148.2z"/>
<path class="st1" d="M0,150V0c716.9,0,788.8,118,1348.9,129.2s805.4-27.8,932.1-38.9s236.9-44.8,537.3-46.2
	c280.1-1.4,543.7,50.5,691.9,65.8c173.6,18,538.2,20,744.6-34.8C4457,21.2,4636.5,0,5000,0v150H0z"/>
<path class="st2" d="M1534.1,143.2c-166.1,0-325.4-5.7-461.4-16.6c-169-13.6-310.2-32.1-446.6-50C420.6,49.7,243,24.2,0,24.2v-3
	c244.6,0,422.9,25.5,629.2,52.6c136.2,17.8,277,36.3,445.5,49.8c138.5,11.1,301.3,16.8,471,16.6c231-0.4,479-11.5,737.1-33.1
	c532.4-44.5,808.9-20.1,1052.8,1.3c112.8,10,219.3,19.3,343.1,21.7c350.1,6.8,394.1-2.3,638.2-52.7c32.3-6.6,68.6-14.2,109.5-22.4
	c120.6-24.3,275-34.1,573.6-33.8v3c-296.9-0.4-450,9.3-569.1,33.4c-40.8,8.2-77.2,15.8-109.4,22.4c-246.1,50.8-290.5,60-643.3,53.2
	c-124.8-2.4-231.7-11.8-344.9-21.8c-124.4-11-253.1-22.3-418-25.5c-187.2-3.6-393.4,4.3-630.5,24.1
	c-258.8,21.6-507.5,32.8-739.2,33.2H1534.1z"/>
</svg>
