<svg width="30" height="30" viewBox="0 0 30 30" fill="none" xmlns="http://www.w3.org/2000/svg">
<path d="M1.75002 0H1.25004C0.560977 0 0 0.560977 0 1.24998V28.75C0 29.439 0.560977 30 1.24998 30H1.74996C2.43896 30 2.99994 29.439 2.99994 28.75V7.00002V6.99703V1.24998C3 0.560977 2.43902 0 1.75002 0Z" fill="#FFD166"/>
<path d="M28.75 0H28.25C27.561 0 27 0.560977 27 1.24998V6.99996V28.75C27 29.439 27.561 29.9999 28.25 29.9999H28.75C29.439 29.9999 29.9999 29.439 29.9999 28.75V1.24998C30 0.560977 29.439 0 28.75 0Z" fill="#FFD166"/>
<path d="M25.8655 6.6465L23.574 4.14648C23.4865 4.0505 23.3695 4 23.25 4C23.191 4 23.1315 4.01248 23.0745 4.03802C22.9035 4.11554 22.7915 4.298 22.7915 4.50003V6.50002H7.20848V4.49998C7.20848 4.298 7.09697 4.11548 6.92547 4.03796C6.7535 3.96044 6.55697 4.00298 6.42596 4.14648L4.13447 6.6465C4.045 6.744 4 6.87203 4 7C4 7.12796 4.045 7.25599 4.13447 7.35349L6.42596 9.85351C6.51344 9.94902 6.63045 10 6.74998 10C6.80898 10 6.86846 9.98752 6.92547 9.96197C7.09644 9.88445 7.20848 9.70199 7.20848 9.49996V7.49998H22.7919V9.49996C22.7919 9.70193 22.9035 9.88445 23.075 9.96197C23.2469 10.0395 23.4435 9.99695 23.5745 9.85345L25.866 7.35343C25.955 7.25593 26 7.12791 26 6.99994C26 6.87197 25.955 6.744 25.8655 6.6465Z" fill="#EF476F"/>
</svg>
